\BOOKMARK [1][-]{section.1}{Einf\374hrung}{}% 1
\BOOKMARK [1][-]{section.2}{Der Algorithmus von SmartVote}{}% 2
\BOOKMARK [2][-]{subsection.2.1}{Gewichtung der Fragen von W\344hler und Kandidat}{section.2}% 3
\BOOKMARK [1][-]{section.3}{Weitere Gedanken}{}% 4
\BOOKMARK [2][-]{subsection.3.1}{Die politische Distanz: das Abstandsmass}{section.3}% 5
\BOOKMARK [2][-]{subsection.3.2}{Andere Methodiken}{section.3}% 6
