\relax 
\providecommand\hyper@newdestlabel[2]{}
\providecommand\HyperFirstAtBeginDocument{\AtBeginDocument}
\HyperFirstAtBeginDocument{\ifx\hyper@anchor\@undefined
\global\let\oldcontentsline\contentsline
\gdef\contentsline#1#2#3#4{\oldcontentsline{#1}{#2}{#3}}
\global\let\oldnewlabel\newlabel
\gdef\newlabel#1#2{\newlabelxx{#1}#2}
\gdef\newlabelxx#1#2#3#4#5#6{\oldnewlabel{#1}{{#2}{#3}}}
\AtEndDocument{\ifx\hyper@anchor\@undefined
\let\contentsline\oldcontentsline
\let\newlabel\oldnewlabel
\fi}
\fi}
\global\let\hyper@last\relax 
\gdef\HyperFirstAtBeginDocument#1{#1}
\providecommand\HyField@AuxAddToFields[1]{}
\providecommand\HyField@AuxAddToCoFields[2]{}
\@writefile{toc}{\contentsline {section}{\numberline {1}Einf\IeC {\"u}hrung}{1}{section.1}}
\@writefile{toc}{\contentsline {section}{\numberline {2}Der Algorithmus von SmartVote}{1}{section.2}}
\@writefile{toc}{\contentsline {subsection}{\numberline {2.1}Gewichtung der Fragen von W\IeC {\"a}hler und Kandidat}{1}{subsection.2.1}}
\newlabel{eq:SV1}{{1}{1}{Gewichtung der Fragen von Wähler und Kandidat}{equation.2.1}{}}
\newlabel{eq:SV1@cref}{{[equation][1][]1}{1}}
\newlabel{eq:SV2}{{2}{1}{Gewichtung der Fragen von Wähler und Kandidat}{equation.2.2}{}}
\newlabel{eq:SV2@cref}{{[equation][2][]2}{1}}
\newlabel{eq:SV3}{{3}{1}{Gewichtung der Fragen von Wähler und Kandidat}{equation.2.3}{}}
\newlabel{eq:SV3@cref}{{[equation][3][]3}{1}}
\@writefile{lof}{\contentsline {figure}{\numberline {1}{\ignorespaces  Grafische Darstellung der politischen Einstellungen\relax }}{2}{figure.caption.1}}
\providecommand*\caption@xref[2]{\@setref\relax\@undefined{#1}}
\newlabel{fig:lin_abs1}{{1}{2}{\\Grafische Darstellung der politischen Einstellungen\relax }{figure.caption.1}{}}
\newlabel{fig:lin_abs1@cref}{{[figure][1][]1}{2}}
\@writefile{lof}{\contentsline {figure}{\numberline {2}{\ignorespaces  Grafische Darstellung der politischen Einstellungen\relax }}{2}{figure.caption.2}}
\newlabel{fig:lin_abs2}{{2}{2}{\\Grafische Darstellung der politischen Einstellungen\relax }{figure.caption.2}{}}
\newlabel{fig:lin_abs2@cref}{{[figure][2][]2}{2}}
\@writefile{lof}{\contentsline {figure}{\numberline {3}{\ignorespaces  Grafische Darstellung der politischen Einstellungen\relax }}{3}{figure.caption.3}}
\newlabel{fig:lin_abs3}{{3}{3}{\\Grafische Darstellung der politischen Einstellungen\relax }{figure.caption.3}{}}
\newlabel{fig:lin_abs3@cref}{{[figure][3][]3}{3}}
\newlabel{eq:SterV}{{5}{3}{Gewichtung der Fragen von Wähler und Kandidat}{equation.2.5}{}}
\newlabel{eq:SterV@cref}{{[equation][5][]5}{3}}
\@writefile{toc}{\contentsline {section}{\numberline {3}Weitere Gedanken}{4}{section.3}}
\@writefile{toc}{\contentsline {subsection}{\numberline {3.1}Die politische Distanz: das Abstandsmass}{4}{subsection.3.1}}
\@writefile{toc}{\contentsline {subsection}{\numberline {3.2}Andere Methodiken}{4}{subsection.3.2}}
\@writefile{lof}{\contentsline {figure}{\numberline {4}{\ignorespaces  Grafische Darstellung der politischen Einstellungen\relax }}{4}{figure.caption.4}}
\newlabel{fig:normVerteilung}{{4}{4}{\\Grafische Darstellung der politischen Einstellungen\relax }{figure.caption.4}{}}
\newlabel{fig:normVerteilung@cref}{{[figure][4][]4}{4}}
